<svg xmlns="http://www.w3.org/2000/svg" width="318.01" height="22.001" viewBox="0 0 318.01 22.001">
  <g id="Group_2367" data-name="Group 2367" transform="translate(-465 -120)">
    <g id="Component_118_1" data-name="Component 118 – 1" transform="translate(543 120)">
      <g id="Group_2095" data-name="Group 2095">
        <g id="Rectangle_23_copy_67" data-name="Rectangle 23 copy 67" transform="translate(-1096 -685)" fill="#f6f6f6" stroke-linejoin="round">
          <path d="M 1335.490112304688 706.5006103515625 L 1096.499877929688 706.49951171875 L 1096.499877929688 685.4996948242188 L 1335.490112304688 685.4996948242188 L 1335.490112304688 706.5006103515625 Z" stroke="none"/>
          <path d="M 1096.999877929688 685.9996948242188 L 1096.999877929688 705.99951171875 L 1334.990112304688 706.0006103515625 L 1334.990112304688 685.9996948242188 L 1096.999877929688 685.9996948242188 M 1095.999877929688 684.9996948242188 L 1335.990112304688 684.9996948242188 L 1335.990112304688 707.0006103515625 L 1095.999877929688 706.99951171875 L 1095.999877929688 684.9996948242188 Z" stroke="none" fill="#c6cacc"/>
        </g>
        <text id="_-_Browse_File_-" data-name="- Browse File -" transform="translate(8.145 15)" font-size="11" font-family="Verdana"><tspan x="0" y="0">- Browse File -</tspan></text>
        <g id="Group_2364" data-name="Group 2364" transform="translate(183)">
          <rect id="Rounded_Rectangle_1_copy_20" data-name="Rounded Rectangle 1 copy 20" width="57.01" height="22" fill="#556067"/>
          <text id="Browse" transform="translate(8.155 15.5)" fill="#fff" font-size="11" font-family="Verdana"><tspan x="0" y="0">Browse</tspan></text>
        </g>
      </g>
    </g>
    <text id="Browse_File" data-name="Browse File" transform="translate(528 136)" font-size="11" font-family="Verdana"><tspan x="-62.976" y="0">Browse File</tspan></text>
  </g>
</svg>
