<svg xmlns="http://www.w3.org/2000/svg" width="318" height="55.258" viewBox="0 0 318 55.258">
  <g id="Group_2370" data-name="Group 2370" transform="translate(-465 -214)">
    <g id="Component_115_1" data-name="Component 115 – 1" transform="translate(543 214)">
      <g id="Rectangle_23_copy_69" data-name="Rectangle 23 copy 69" transform="translate(-1096 -636)" fill="#fff" stroke-linejoin="round">
        <path d="M 1335.500366210938 690.7578735351562 L 1096.499877929688 690.7567749023438 L 1096.499877929688 636.5000610351562 L 1278.172119140625 636.5000610351562 L 1335.500366210938 636.5000610351562 L 1335.500366210938 690.7578735351562 Z" stroke="none"/>
        <path d="M 1096.999877929688 637.0000610351562 L 1096.999877929688 690.2567749023438 L 1335.000366210938 690.2578735351562 L 1335.000366210938 637.0000610351562 L 1278.172119140625 637.0000610351562 L 1096.999877929688 637.0000610351562 M 1095.999877929688 636.0000610351562 L 1278.172119140625 636.0000610351562 L 1336.000366210938 636.0000610351562 L 1336.000366210938 691.2578735351562 L 1095.999877929688 691.2567749023438 L 1095.999877929688 636.0000610351562 Z" stroke="none" fill="#c6cacc"/>
      </g>
      <g id="Component_199_2" data-name="Component 199 – 2" transform="translate(229.5 44.758)">
        <path id="Union_493" data-name="Union 493" d="M8,6,6,8ZM8,3,3,8ZM8,0,0,8Z" fill="none" stroke="#000" stroke-linecap="square" stroke-linejoin="round" stroke-width="1" opacity="0.9"/>
      </g>
    </g>
    <text id="Description" transform="translate(528 228)" font-size="11" font-family="Verdana"><tspan x="-62.047" y="0">Description</tspan></text>
  </g>
</svg>
