<svg xmlns="http://www.w3.org/2000/svg" width="301.99" height="22.001" viewBox="0 0 301.99 22.001">
  <g id="Group_2365" data-name="Group 2365" transform="translate(-481 -20)">
    <g id="Component_121_1" data-name="Component 121 – 1" transform="translate(543 20)">
      <g id="Group_2095" data-name="Group 2095">
        <g id="Rectangle_23_copy_67" data-name="Rectangle 23 copy 67" transform="translate(-1096 -685)" fill="#fff" stroke-linejoin="round">
          <path d="M 1335.490112304688 706.5006103515625 L 1096.499877929688 706.49951171875 L 1096.499877929688 685.4996948242188 L 1335.490112304688 685.4996948242188 L 1335.490112304688 706.5006103515625 Z" stroke="none"/>
          <path d="M 1096.999877929688 685.9996948242188 L 1096.999877929688 705.99951171875 L 1334.990112304688 706.0006103515625 L 1334.990112304688 685.9996948242188 L 1096.999877929688 685.9996948242188 M 1095.999877929688 684.9996948242188 L 1335.990112304688 684.9996948242188 L 1335.990112304688 707.0006103515625 L 1095.999877929688 706.99951171875 L 1095.999877929688 684.9996948242188 Z" stroke="none" fill="#c6cacc"/>
        </g>
        <text id="Placeholder" transform="translate(8.145 15)" font-size="11" font-family="Verdana" opacity="0.6"><tspan x="0" y="0">Placeholder</tspan></text>
      </g>
    </g>
    <text id="Text_box" data-name="Text box" transform="translate(528 35)" font-size="11" font-family="Verdana"><tspan x="-46.793" y="0">Text box</tspan></text>
  </g>
</svg>
